{
  "name": "Mad Max: Fury Road",
  "details": "In a post-apocalyptic wasteland, Max teams up with Furiosa to escape a tyrannical warlord and his army.",
  "releaseDate": "2015-05-15",
  "genre": 5,
  "type": 0,
  "actors": [
    {
      "Name": "Tom Hardy"
    },
    {
      "Name": "Charlize Theron"
    },
    {
      "Name": "Nicholas Hoult"
    }
  ],
  "seasons": [
    {
      "Name": "Mad Max: Fury Road",
      "ReleaseDate": "2015-05-15",
      "Details": "In a post-apocalyptic wasteland, Max teams up with Furiosa to escape a tyrannical warlord and his army.",
      "episodes": [
        {
          "title": "Mad Max: Fury Road",
          "releaseDate": "2015-05-15",
          "details": "In a post-apocalyptic wasteland, Max teams up with Furiosa to escape a tyrannical warlord and his army.",
          "duration": 120
        }
      ]
    }
  ]
}