{
  "name": "Top Gun",
  "details": "A skilled fighter pilot's life takes a drastic turn when he is accepted into the Top Gun Naval Fighter Weapons School.",
  "releaseDate": "1986-05-16",
  "genre": 5,
  "type": 0,
  "actors": [
    {
      "Name": "Tom Cruise"
    },
    {
      "Name": "Kelly McGillis"
    },
    {
      "Name": "Val Kilmer"
    }
  ],
  "seasons": [
    {
      "Name": "Top Gun",
      "ReleaseDate": "1986-05-16",
      "Details": "A skilled fighter pilot's life takes a drastic turn when he is accepted into the Top Gun Naval Fighter Weapons School.",
      "episodes": [
        {
          "title": "Top Gun",
          "releaseDate": "1986-05-16",
          "details": "A skilled fighter pilot's life takes a drastic turn when he is accepted into the Top Gun Naval Fighter Weapons School.",
          "duration": 110
        }
      ]
    }
  ]
}